module luw

go 1.17

require (
	github.com/golang/glog v1.0.0
	k8s.io/api v0.23.1
	k8s.io/apimachinery v0.23.1
)

require (
	github.com/go-logr/logr v1.2.2 // indirect
	github.com/gogo/protobuf v1.3.2 // indirect
	github.com/google/go-cmp v0.5.6 // indirect
	github.com/google/gofuzz v1.2.0 // indirect
	github.com/json-iterator/go v1.1.12 // indirect
	github.com/modern-go/concurrent v0.0.0-20180306012644-bacd9c7ef1dd // indirect
	github.com/modern-go/reflect2 v1.0.2 // indirect
	golang.org/x/net v0.0.0-20211216030914-fe4d6282115f // indirect
	golang.org/x/text v0.3.7 // indirect
	gopkg.in/inf.v0 v0.9.1 // indirect
	gopkg.in/yaml.v2 v2.4.0 // indirect
	k8s.io/klog/v2 v2.40.1 // indirect
	k8s.io/utils v0.0.0-20211208161948-7d6a63dca704 // indirect
	sigs.k8s.io/json v0.0.0-20211208200746-9f7c6b3444d2 // indirect
	sigs.k8s.io/structured-merge-diff/v4 v4.2.0 // indirect
)
